…
``` r
#My custom function
my_hwymean <- function(df, ...) {
  #... here allows us to pass any number of arguments to our function
  mydf <- df %>% group_by_(...) %>% summarise(hwy_mean = mean(hwy))
  return(mydf)
}

#Aggregate by both manufacturer and model
my_hwymean(mpg, 'manufacturer', 'model')
```

    ## # A tibble: 38 x 3
    ## # Groups:   manufacturer [?]
    ##    manufacturer model              hwy_mean
    ##    <chr>        <chr>                 <dbl>
    ##  1 audi         a4                     28.3
    ##  2 audi         a4 quattro             25.8
    ##  3 audi         a6 quattro             24.0
    ##  4 chevrolet    c1500 suburban 2wd     17.8
    ##  5 chevrolet    corvette               24.8
    ##  6 chevrolet    k1500 tahoe 4wd        16.2
    ##  7 chevrolet    malibu                 27.6
    ##  8 dodge        caravan 2wd            22.4
    ##  9 dodge        dakota pickup 4wd      17.0
    ## 10 dodge        durango 4wd            16.0
    ## # ... with 28 more rows

``` r
#Aggregate by transition type, in addition to manufacturer and model
my_hwymean(mpg, 'manufacturer', 'model', 'trans')
```

    ## # A tibble: 113 x 4
    ## # Groups:   manufacturer, model [?]
    ##    manufacturer model      trans      hwy_mean
    ##    <chr>        <chr>      <chr>         <dbl>
    ##  1 audi         a4         auto(av)       28.5
    ##  2 audi         a4         auto(l5)       27.5
    ##  3 audi         a4         manual(m5)     27.5
    ##  4 audi         a4         manual(m6)     31.0
    ##  5 audi         a4 quattro auto(l5)       25.0
    ##  6 audi         a4 quattro auto(s6)       26.0
    ##  7 audi         a4 quattro manual(m5)     25.5
    ##  8 audi         a4 quattro manual(m6)     26.5
    ##  9 audi         a6 quattro auto(l5)       24.0
    ## 10 audi         a6 quattro auto(s6)       24.0
    ## # ... with 103 more rows
